-----BEGIN PGP SIGNED MESSAGE-----

########################################################
#
# The text of this message was stamped by
# stamper.itconsult.co.uk with reference 2035305
# at 18:50 (GMT) on Friday 07 March 2025
#
# For information about the Stamper service see
#        http://www.itconsult.co.uk/stamper.htm
#
########################################################

d92b8ddbd5c78054a2252ed1c1ea681659e87f40
4b7cd3d1b6e8759d11a975b3846174d6b98a0e95
285f6d1c60dd91cb4dac4b03df24636aaec1bcb1
df1b986f20e0311780008fea4403e69ee0b913a6
96ed501742ce8dedba7af7ffec28cf89b64e70a2
6fa7a11c5a41efda9dcbeb7f6f60e824b5cf3ace
0e14613ebdbc7376dcfa52cde54bd3faaed05614

git commit: cded17e6126898b71b4f92de48ae9f71374c57fa

-----BEGIN PGP SIGNATURE-----
Version: 2.6.3i
Charset: noconv
Comment: Stamper Reference Id: 2035305

iQEVAgUBZ8s/2IGVnbVwth+BAQFs4wf8DyYLgOVsZF8gYufikM9VRkoxQwpLH1rS
BzBhwlPUGwDMRU9U6OfsHZZyYo/QViCgzEp8n/DSDFhF0CJxLGKOBSm4LTaWO/pV
u07d+o67KWWmozQasvwP/waula0ufGpZ/y6BAFCSrGWL8+mohdT/cbAgQbfBmBvf
mCDzTnt2h+x4KBLi91AR0loPr7Bppm1/+szT9M5sdFVgrjT+ntpQWLwbmik6FlTq
9Y3h8H2priPZC749h9IR8LJZidUKqxWSbOL8ZjE6UfwFt6yIupkV7oiBmlTIRsRh
KinEVVvQY4ipXgo/WMHy2yKv3MCH+EsyEHqwYpYaxfdt1tJqgEGEuw==
=PU42
-----END PGP SIGNATURE-----
